{"meta": {
    "limit": 1,
    "next": "/api/v2/avalanche-region-forecast/?offset=1&limit=1&zone=olympics&format=json",
    "offset": 0,
    "previous": null,
    "total_count": 31
}, "objects": [
    {
        "bottom_line_summary": "<p><strong>Only light amounts of new snow expected and little change is expected</strong></p>\r\n",
        "concern_discussion": "<p>Few storm slabs and wind slabs.</p>\r\n",
        "concerns": [
            {
                "concern_type": {
                    "definition": "",
                    "id": 4,
                    "image": "/media/images/concern_type_images/Storm.Slabs_1.png",
                    "name": "Storm Slabs",
                    "resource_uri": "",
                    "risk_management_description": "<p>Storm slabs usually stabilize within a few days, and release at or below the trigger point. They exist throughout the terrain, and can be avoided by waiting for the storm snow to stabilize.</p>\r\n"
                },
                "id": 85,
                "likelihood": "2-possible",
                "maximum_size": "1-small",
                "minimum_size": "1-small",
                "octagon_high_east": true,
                "octagon_high_north": true,
                "octagon_high_northeast": true,
                "octagon_high_northwest": true,
                "octagon_high_south": true,
                "octagon_high_southeast": true,
                "octagon_high_southwest": true,
                "octagon_high_west": true,
                "octagon_low_east": false,
                "octagon_low_north": false,
                "octagon_low_northeast": false,
                "octagon_low_northwest": false,
                "octagon_low_south": false,
                "octagon_low_southeast": false,
                "octagon_low_southwest": false,
                "octagon_low_west": false,
                "octagon_mid_east": true,
                "octagon_mid_north": true,
                "octagon_mid_northeast": true,
                "octagon_mid_northwest": true,
                "octagon_mid_south": true,
                "octagon_mid_southeast": true,
                "octagon_mid_southwest": true,
                "octagon_mid_west": true,
                "order": 1,
                "resource_uri": ""
            },
            {
                "concern_type": {
                    "definition": "",
                    "id": 5,
                    "image": "/media/images/concern_type_images/Wind.Slabs_1.png",
                    "name": "Wind Slab",
                    "resource_uri": "",
                    "risk_management_description": "<p>Wind slabs can take up to a week to stabilize. They are confined to lee and cross-loaded terrain features and can be avoided by sticking to sheltered or wind scoured areas.</p>\r\n"
                },
                "id": 86,
                "likelihood": "3-likely",
                "maximum_size": "1-small",
                "minimum_size": "1-small",
                "octagon_high_east": true,
                "octagon_high_north": true,
                "octagon_high_northeast": true,
                "octagon_high_northwest": true,
                "octagon_high_south": true,
                "octagon_high_southeast": true,
                "octagon_high_southwest": false,
                "octagon_high_west": false,
                "octagon_low_east": false,
                "octagon_low_north": false,
                "octagon_low_northeast": false,
                "octagon_low_northwest": false,
                "octagon_low_south": false,
                "octagon_low_southeast": false,
                "octagon_low_southwest": false,
                "octagon_low_west": false,
                "octagon_mid_east": false,
                "octagon_mid_north": false,
                "octagon_mid_northeast": false,
                "octagon_mid_northwest": false,
                "octagon_mid_south": false,
                "octagon_mid_southeast": false,
                "octagon_mid_southwest": false,
                "octagon_mid_west": false,
                "order": 2,
                "resource_uri": ""
            }
        ],
        "day1_danger_elev_high": "Moderate",
        "day1_danger_elev_low": "Low",
        "day1_danger_elev_middle": "Low",
        "day1_date": "2013-12-06",
        "day1_detailed_forecast": "<p>Mostly cloudy, cold with a few light snow flurries mainly overnight Thursday or early Friday morning. This should not change the currently mostly stable snowpack and overall low danger.</p>\r\n",
        "day1_trend": "flat",
        "day1_warning": "none",
        "day1_warning_end": "2013-11-27T20:00:00",
        "day1_warning_text": "",
        "day2_danger_elev_high": "Considerable",
        "day2_danger_elev_low": "Moderate",
        "day2_danger_elev_middle": "Moderate",
        "day2_trend": "incr-slight",
        "day2_warning": "none",
        "day2_warning_end": null,
        "day2_warning_text": "",
        "id": 70,
        "order": 10,
        "publish_date": "2013-12-05T15:43:17",
        "resource_uri": "/api/v2/avalanche-region-forecast/70/",
        "snowpack_discussion": "<p>With the snowdepth around 1 foot or less at Hurricane Ridge, the current avalanche danger remains low in most areas. At higher elevations in the alpine little or no recent information is available and things are likely much different. The last significant precipitation arrived as mostly rain last Sunday before cooling moved into the area and changed to snowfall. However only about 4 to 8 inches of snowfall occurred a around 5000 feet in the Hurricane Ridge area.&nbsp;</p>\r\n",
        "zones": [
            {
                "id": 1,
                "resource_uri": "/api/v2/zone/1/",
                "slug": "olympics",
                "zone_abbrev": "Olympics",
                "zone_name": "Olympics"
            }
        ]
    }
]}