{"meta": {
    "limit": 1,
    "next": "/api/v2/avalanche-region-forecast/?offset=1&limit=1&zone=cascade-west-stevens-pass&format=json",
    "offset": 0,
    "previous": null,
    "total_count": 31
}, "objects": [
    {
        "bottom_line_summary": "<p>Little change in the near future. Big changes coming late Friday and into the weekend.</p>\r\n",
        "concern_discussion": "",
        "concerns": [
            {
                "concern_type": {
                    "definition": "",
                    "id": 3,
                    "image": "/media/images/concern_type_images/Loose.Dry_2.png",
                    "name": "Loose Dry",
                    "resource_uri": "",
                    "risk_management_description": "<p>Loose dry avalanches exist throughout the terrain, release at or below the trigger point, and can run in densely-treed areas. Avoid very steep slopes and terrain traps such as cliffs, gullies, or tree wells.</p>\r\n"
                },
                "id": 87,
                "likelihood": "3-likely",
                "maximum_size": "1-small",
                "minimum_size": "1-small",
                "octagon_high_east": true,
                "octagon_high_north": true,
                "octagon_high_northeast": true,
                "octagon_high_northwest": true,
                "octagon_high_south": true,
                "octagon_high_southeast": true,
                "octagon_high_southwest": true,
                "octagon_high_west": true,
                "octagon_low_east": true,
                "octagon_low_north": true,
                "octagon_low_northeast": true,
                "octagon_low_northwest": true,
                "octagon_low_south": true,
                "octagon_low_southeast": true,
                "octagon_low_southwest": true,
                "octagon_low_west": true,
                "octagon_mid_east": true,
                "octagon_mid_north": true,
                "octagon_mid_northeast": true,
                "octagon_mid_northwest": true,
                "octagon_mid_south": true,
                "octagon_mid_southeast": true,
                "octagon_mid_southwest": true,
                "octagon_mid_west": true,
                "order": 1,
                "resource_uri": ""
            }
        ],
        "day1_danger_elev_high": "Considerable",
        "day1_danger_elev_low": "Moderate",
        "day1_danger_elev_middle": "Moderate",
        "day1_date": "2013-12-06",
        "day1_detailed_forecast": "<p>Mostly cloudy and cold with light winds and a chance of light snow flurries. This should not appreciably chance the current snowpack or danger.&nbsp;</p>\r\n",
        "day1_trend": "incr-slight",
        "day1_warning": "none",
        "day1_warning_end": null,
        "day1_warning_text": "",
        "day2_danger_elev_high": "Considerable",
        "day2_danger_elev_low": "Moderate",
        "day2_danger_elev_middle": "Moderate",
        "day2_trend": "incr-sharp",
        "day2_warning": "Watch",
        "day2_warning_end": "2013-12-06T00:00:00",
        "day2_warning_text": "<p>...Avalanche Watch for significantly increasing danger late Friday...</p>\r\n",
        "id": 72,
        "order": 12,
        "publish_date": "2013-12-05T15:43:17",
        "resource_uri": "/api/v2/avalanche-region-forecast/72/",
        "snowpack_discussion": "<p>Up to 2 to 4 feet of total snowpack exists above about 5-6000 feet over much of the Cascades. The last major storm Sunday deposited 1-2 feet of snow as it transitioned from rain. Therefore a strong rain crust now exists about 1 to 2 feet below the surface and from recent reports is maintaining a strong bond between new snow and rain crust.</p>\r\n\r\n<p>Recent reports indicate that any areas of unstable snow from the last storm have settled nicely and&nbsp;no reports of recent avalanches have been received at NWAC since Sunday.&nbsp;</p>\r\n",
        "zones": [
            {
                "id": 2,
                "resource_uri": "/api/v2/zone/2/",
                "slug": "cascade-west-stevens-pass",
                "zone_abbrev": "Cascade Pass - Stevens Pass",
                "zone_name": "Stevens Pass"
            },
            {
                "id": 3,
                "resource_uri": "/api/v2/zone/3/",
                "slug": "cascade-west-snoqualmie-pass",
                "zone_abbrev": "Cascade Pass - Snoq. Pass",
                "zone_name": "Snoqualmie Pass"
            },
            {
                "id": 4,
                "resource_uri": "/api/v2/zone/4/",
                "slug": "cascade-west-white-pass",
                "zone_abbrev": "Cascade Pass - White Pass",
                "zone_name": "White Pass"
            },
            {
                "id": 5,
                "resource_uri": "/api/v2/zone/5/",
                "slug": "cascade-west-stevens-pass-north",
                "zone_abbrev": "Cascade West - Stevens Pass N",
                "zone_name": "WA Cascades near and west of crest - north of Stevens Pass"
            },
            {
                "id": 6,
                "resource_uri": "/api/v2/zone/6/",
                "slug": "cascade-west-stevens-to-snoqualmie",
                "zone_abbrev": "Cascade West - Stevens to Snoq",
                "zone_name": "WA Cascades near and west of crest - between Stevens and Snoqualmie Pass"
            },
            {
                "id": 7,
                "resource_uri": "/api/v2/zone/7/",
                "slug": "cascade-west-snoqualmie-to-white-pass",
                "zone_abbrev": "Cascade West - Snoq to White",
                "zone_name": "WA Cascades near and west of crest - between Snoqualmie and White Pass"
            },
            {
                "id": 8,
                "resource_uri": "/api/v2/zone/8/",
                "slug": "cascade-west-white-pass-south",
                "zone_abbrev": "Cascade West - White Pass S",
                "zone_name": "WA Cascades near and west of crest - south of White Pass"
            },
            {
                "id": 9,
                "resource_uri": "/api/v2/zone/9/",
                "slug": "cascade-east-stevens-pass-north",
                "zone_abbrev": "Cascade East - Stevens Pass N",
                "zone_name": "East slopes WA Cascades - north of Stevens Pass"
            },
            {
                "id": 10,
                "resource_uri": "/api/v2/zone/10/",
                "slug": "cascade-east-stevens-to-snoqualmie",
                "zone_abbrev": "Cascade East - Stevens to Snoq",
                "zone_name": "East slopes WA Cascades - between Stevens and Snoqualmie Pass"
            },
            {
                "id": 11,
                "resource_uri": "/api/v2/zone/11/",
                "slug": "cascade-east-snoqualmie-to-white-pass",
                "zone_abbrev": "Cascade East - Snoq to White",
                "zone_name": "East slopes WA Cascades - between Snoqualmie and White Pass"
            },
            {
                "id": 12,
                "resource_uri": "/api/v2/zone/12/",
                "slug": "cascade-east-white-pass-south",
                "zone_abbrev": "Cascade East - White Pass S",
                "zone_name": "East slopes WA Cascades - south of White Pass"
            }
        ]
    }
]}