{"meta": {
    "limit": 1,
    "next": "/api/v2/avalanche-region-forecast/?offset=1&limit=1&zone=mt-hood&format=json",
    "offset": 0,
    "previous": null,
    "total_count": 31
}, "objects": [
    {
        "bottom_line_summary": "<p>Special Statement for the Mt Hood area...</p>\r\n",
        "concern_discussion": "",
        "concerns": [],
        "day1_danger_elev_high": "no-data",
        "day1_danger_elev_low": "no-data",
        "day1_danger_elev_middle": "no-data",
        "day1_date": "2013-12-06",
        "day1_detailed_forecast": "<p>n/a</p>\r\n",
        "day1_trend": "flat",
        "day1_warning": "none",
        "day1_warning_end": null,
        "day1_warning_text": "",
        "day2_danger_elev_high": "no-data",
        "day2_danger_elev_low": "no-data",
        "day2_danger_elev_middle": "no-data",
        "day2_trend": "flat",
        "day2_warning": "none",
        "day2_warning_end": null,
        "day2_warning_text": "",
        "id": 71,
        "order": 15,
        "publish_date": "2013-12-05T15:43:17",
        "resource_uri": "/api/v2/avalanche-region-forecast/71/",
        "snowpack_discussion": "<p>n/a</p>\r\n",
        "zones": [
            {
                "id": 13,
                "resource_uri": "/api/v2/zone/13/",
                "slug": "mt-hood",
                "zone_abbrev": "Mt Hood",
                "zone_name": "Mt Hood area"
            }
        ]
    }
]}